{
  "uid" : "d5afd5fb74b98099",
  "name" : "GetFacts",
  "historyId" : "304f77a26bdd5a6e2a9d3b1e7d85a950",
  "time" : {
    "start" : 1643319499707,
    "stop" : 1643319499766,
    "duration" : 59
  },
  "descriptionHtml" : "<p style=\"color:MediumPurple;\"> <b>  </b> </p> <h4 style=\"color:DodgerBlue;\"><b><i>Request:</i></b></h4> <p style=\"color:DodgerBlue\"> <b> GET - https://catfact.ninja/facts </b> </p>  <table> <tr> <th style=\"border: 1px solid #dddddd;text-align: left;padding: 8px;color:Orange;\">  </th> <td style=\"border: 1px solid #dddddd;text-align: left;padding: 8px;\"> <pre style=\"color:Orange\"> <b>  </b> </pre> </td> </tr>  </table> </p> <h4 style=\"color:DodgerBlue;\"> <b> <i> Response: </i> </b> </h4> <p style=\"color:DodgerBlue\"> <b> 200 - OK </b> </p> <p > <pre style=\"color:Orange;\"> <b> {\"current_page\":1,\"data\":[{\"fact\":\"A cat rubs against people not only to be affectionate but also to mark out its territory with scent glands around its face. The tail area and paws also carry the cat\\u2019s scent.\",\"length\":174},{\"fact\":\"Cat families usually play best in even numbers. Cats and kittens should be acquired in pairs whenever possible.\",\"length\":111},{\"fact\":\"A cat cannot see directly under its nose.\",\"length\":41},{\"fact\":\"A cat lover is called an Ailurophilia (Greek: cat+lover).\",\"length\":57},{\"fact\":\"A cat's jaw has only up and down motion; it does not have any lateral, side to side motion, like dogs and humans.\",\"length\":113},{\"fact\":\"In relation to their body size, cats have the largest eyes of any mammal.\",\"length\":73},{\"fact\":\"Many cats love having their forehead gently stroked.\",\"length\":52},{\"fact\":\"The chlorine in fresh tap water irritates sensitive parts of the cat's nose. Let tap water sit for 24 hours before giving it to a cat.\",\"length\":134},{\"fact\":\"Today there are about 100 distinct breeds of the domestic cat.\",\"length\":62},{\"fact\":\"A 2007 Gallup poll revealed that both men and women were equally likely to own a cat.\",\"length\":85}],\"first_page_url\":\"https:\\/\\/catfact.ninja\\/facts?page=1\",\"from\":1,\"last_page\":34,\"last_page_url\":\"https:\\/\\/catfact.ninja\\/facts?page=34\",\"links\":[{\"url\":null,\"label\":\"Previous\",\"active\":false},{\"url\":\"https:\\/\\/catfact.ninja\\/facts?page=1\",\"label\":\"1\",\"active\":true},{\"url\":\"https:\\/\\/catfact.ninja\\/facts?page=2\",\"label\":\"2\",\"active\":false},{\"url\":\"https:\\/\\/catfact.ninja\\/facts?page=3\",\"label\":\"3\",\"active\":false},{\"url\":\"https:\\/\\/catfact.ninja\\/facts?page=4\",\"label\":\"4\",\"active\":false},{\"url\":\"https:\\/\\/catfact.ninja\\/facts?page=5\",\"label\":\"5\",\"active\":false},{\"url\":\"https:\\/\\/catfact.ninja\\/facts?page=6\",\"label\":\"6\",\"active\":false},{\"url\":\"https:\\/\\/catfact.ninja\\/facts?page=7\",\"label\":\"7\",\"active\":false},{\"url\":\"https:\\/\\/catfact.ninja\\/facts?page=8\",\"label\":\"8\",\"active\":false},{\"url\":\"https:\\/\\/catfact.ninja\\/facts?page=9\",\"label\":\"9\",\"active\":false},{\"url\":\"https:\\/\\/catfact.ninja\\/facts?page=10\",\"label\":\"10\",\"active\":false},{\"url\":null,\"label\":\"...\",\"active\":false},{\"url\":\"https:\\/\\/catfact.ninja\\/facts?page=33\",\"label\":\"33\",\"active\":false},{\"url\":\"https:\\/\\/catfact.ninja\\/facts?page=34\",\"label\":\"34\",\"active\":false},{\"url\":\"https:\\/\\/catfact.ninja\\/facts?page=2\",\"label\":\"Next\",\"active\":false}],\"next_page_url\":\"https:\\/\\/catfact.ninja\\/facts?page=2\",\"path\":\"https:\\/\\/catfact.ninja\\/facts\",\"per_page\":10,\"prev_page_url\":null,\"to\":10,\"total\":332} </b> </pre> </p>",
  "status" : "passed",
  "flaky" : false,
  "newFailed" : false,
  "beforeStages" : [ ],
  "testStage" : {
    "descriptionHtml" : "<p style=\"color:MediumPurple;\"> <b>  </b> </p> <h4 style=\"color:DodgerBlue;\"><b><i>Request:</i></b></h4> <p style=\"color:DodgerBlue\"> <b> GET - https://catfact.ninja/facts </b> </p>  <table> <tr> <th style=\"border: 1px solid #dddddd;text-align: left;padding: 8px;color:Orange;\">  </th> <td style=\"border: 1px solid #dddddd;text-align: left;padding: 8px;\"> <pre style=\"color:Orange\"> <b>  </b> </pre> </td> </tr>  </table> </p> <h4 style=\"color:DodgerBlue;\"> <b> <i> Response: </i> </b> </h4> <p style=\"color:DodgerBlue\"> <b> 200 - OK </b> </p> <p > <pre style=\"color:Orange;\"> <b> {\"current_page\":1,\"data\":[{\"fact\":\"A cat rubs against people not only to be affectionate but also to mark out its territory with scent glands around its face. The tail area and paws also carry the cat\\u2019s scent.\",\"length\":174},{\"fact\":\"Cat families usually play best in even numbers. Cats and kittens should be acquired in pairs whenever possible.\",\"length\":111},{\"fact\":\"A cat cannot see directly under its nose.\",\"length\":41},{\"fact\":\"A cat lover is called an Ailurophilia (Greek: cat+lover).\",\"length\":57},{\"fact\":\"A cat's jaw has only up and down motion; it does not have any lateral, side to side motion, like dogs and humans.\",\"length\":113},{\"fact\":\"In relation to their body size, cats have the largest eyes of any mammal.\",\"length\":73},{\"fact\":\"Many cats love having their forehead gently stroked.\",\"length\":52},{\"fact\":\"The chlorine in fresh tap water irritates sensitive parts of the cat's nose. Let tap water sit for 24 hours before giving it to a cat.\",\"length\":134},{\"fact\":\"Today there are about 100 distinct breeds of the domestic cat.\",\"length\":62},{\"fact\":\"A 2007 Gallup poll revealed that both men and women were equally likely to own a cat.\",\"length\":85}],\"first_page_url\":\"https:\\/\\/catfact.ninja\\/facts?page=1\",\"from\":1,\"last_page\":34,\"last_page_url\":\"https:\\/\\/catfact.ninja\\/facts?page=34\",\"links\":[{\"url\":null,\"label\":\"Previous\",\"active\":false},{\"url\":\"https:\\/\\/catfact.ninja\\/facts?page=1\",\"label\":\"1\",\"active\":true},{\"url\":\"https:\\/\\/catfact.ninja\\/facts?page=2\",\"label\":\"2\",\"active\":false},{\"url\":\"https:\\/\\/catfact.ninja\\/facts?page=3\",\"label\":\"3\",\"active\":false},{\"url\":\"https:\\/\\/catfact.ninja\\/facts?page=4\",\"label\":\"4\",\"active\":false},{\"url\":\"https:\\/\\/catfact.ninja\\/facts?page=5\",\"label\":\"5\",\"active\":false},{\"url\":\"https:\\/\\/catfact.ninja\\/facts?page=6\",\"label\":\"6\",\"active\":false},{\"url\":\"https:\\/\\/catfact.ninja\\/facts?page=7\",\"label\":\"7\",\"active\":false},{\"url\":\"https:\\/\\/catfact.ninja\\/facts?page=8\",\"label\":\"8\",\"active\":false},{\"url\":\"https:\\/\\/catfact.ninja\\/facts?page=9\",\"label\":\"9\",\"active\":false},{\"url\":\"https:\\/\\/catfact.ninja\\/facts?page=10\",\"label\":\"10\",\"active\":false},{\"url\":null,\"label\":\"...\",\"active\":false},{\"url\":\"https:\\/\\/catfact.ninja\\/facts?page=33\",\"label\":\"33\",\"active\":false},{\"url\":\"https:\\/\\/catfact.ninja\\/facts?page=34\",\"label\":\"34\",\"active\":false},{\"url\":\"https:\\/\\/catfact.ninja\\/facts?page=2\",\"label\":\"Next\",\"active\":false}],\"next_page_url\":\"https:\\/\\/catfact.ninja\\/facts?page=2\",\"path\":\"https:\\/\\/catfact.ninja\\/facts\",\"per_page\":10,\"prev_page_url\":null,\"to\":10,\"total\":332} </b> </pre> </p>",
    "status" : "passed",
    "steps" : [ {
      "name" : "Status code is 200",
      "time" : {
        "start" : 1643319499762,
        "stop" : 1643319499762,
        "duration" : 0
      },
      "status" : "passed",
      "steps" : [ ],
      "attachments" : [ ],
      "parameters" : [ ],
      "shouldDisplayMessage" : false,
      "hasContent" : false,
      "stepsCount" : 0,
      "attachmentsCount" : 0
    } ],
    "attachments" : [ {
      "uid" : "9741070e1c14ef32",
      "name" : "test_scrpt",
      "source" : "9741070e1c14ef32.txt",
      "type" : "text/plain",
      "size" : 67
    }, {
      "uid" : "d9c0a01e7e7f1e74",
      "name" : "console_logs",
      "source" : "d9c0a01e7e7f1e74.txt",
      "type" : "text/plain",
      "size" : 82
    } ],
    "parameters" : [ ],
    "shouldDisplayMessage" : false,
    "hasContent" : true,
    "stepsCount" : 1,
    "attachmentsCount" : 2
  },
  "afterStages" : [ ],
  "labels" : [ {
    "name" : "parentSuite",
    "value" : "Facts"
  }, {
    "name" : "feature",
    "value" : "Facts"
  }, {
    "name" : "story",
    "value" : "facts"
  }, {
    "name" : "resultFormat",
    "value" : "allure2"
  } ],
  "parameters" : [ ],
  "links" : [ ],
  "hidden" : false,
  "retry" : false,
  "extra" : {
    "severity" : "normal",
    "retries" : [ ],
    "categories" : [ ],
    "tags" : [ ]
  },
  "source" : "d5afd5fb74b98099.json",
  "parameterValues" : [ ]
}