{
  "uid" : "c1d456cfadf282c6",
  "name" : "GetFacts",
  "historyId" : "955ca825a115545a28a05118ae103094",
  "time" : {
    "start" : 1643380616032,
    "stop" : 1643380616099,
    "duration" : 67
  },
  "descriptionHtml" : "<p style=\"color:MediumPurple;\"> <b>  </b> </p> <h4 style=\"color:DodgerBlue;\"><b><i>Request:</i></b></h4> <p style=\"color:DodgerBlue\"> <b> GET - https://catfact.ninja/facts </b> </p>  <table> <tr> <th style=\"border: 1px solid #dddddd;text-align: left;padding: 8px;color:Orange;\">  </th> <td style=\"border: 1px solid #dddddd;text-align: left;padding: 8px;\"> <pre style=\"color:Orange\"> <b>  </b> </pre> </td> </tr>  </table> </p> <h4 style=\"color:DodgerBlue;\"> <b> <i> Response: </i> </b> </h4> <p style=\"color:DodgerBlue\"> <b> 200 - OK </b> </p> <p > <pre style=\"color:Orange;\"> <b> {\"current_page\":1,\"data\":[{\"fact\":\"A sexually-active feral tom-cat \\\\owns\\\\\\\" an area of about three square miles and \\\\\\\"\\\"sprays\\\\\\\"\\\" to mark his territory with strong smelling urine.\\\"\\\"\\\"\",\"length\":145},{\"fact\":\"Approximately 40,000 people are bitten by cats in the U.S. annually.\",\"length\":68},{\"fact\":\"Cats often overract to unexpected stimuli because of their extremely sensitive nervous system.\",\"length\":94},{\"fact\":\"The richest cat is Blackie who was left \\u00a315 million by his owner, Ben Rea.\",\"length\":74},{\"fact\":\"Cats lose almost as much fluid in the saliva while grooming themselves as they do through urination.\",\"length\":100},{\"fact\":\"Cats should not be fed tuna exclusively, as it lacks taurine, an essential nutrient required for good feline health.  Make sure you have the proper Pet supplies to keep your cat happy and healthy.\",\"length\":196},{\"fact\":\"The first cat in space was a French cat named Felicette (a.k.a. \\u201cAstrocat\\u201d) In 1963, France blasted the cat into outer space. Electrodes implanted in her brains sent neurological signals back to Earth. She survived the trip.\",\"length\":224},{\"fact\":\"A cats field of vision is about 185 degrees.\",\"length\":44},{\"fact\":\"The Maine Coone is the only native American long haired breed.\",\"length\":62},{\"fact\":\"A cat's appetite is the barometer of its health. Any cat that does not eat or drink for more than two days should be taken to a vet.\",\"length\":132}],\"first_page_url\":\"https:\\/\\/catfact.ninja\\/facts?page=1\",\"from\":1,\"last_page\":34,\"last_page_url\":\"https:\\/\\/catfact.ninja\\/facts?page=34\",\"links\":[{\"url\":null,\"label\":\"Previous\",\"active\":false},{\"url\":\"https:\\/\\/catfact.ninja\\/facts?page=1\",\"label\":\"1\",\"active\":true},{\"url\":\"https:\\/\\/catfact.ninja\\/facts?page=2\",\"label\":\"2\",\"active\":false},{\"url\":\"https:\\/\\/catfact.ninja\\/facts?page=3\",\"label\":\"3\",\"active\":false},{\"url\":\"https:\\/\\/catfact.ninja\\/facts?page=4\",\"label\":\"4\",\"active\":false},{\"url\":\"https:\\/\\/catfact.ninja\\/facts?page=5\",\"label\":\"5\",\"active\":false},{\"url\":\"https:\\/\\/catfact.ninja\\/facts?page=6\",\"label\":\"6\",\"active\":false},{\"url\":\"https:\\/\\/catfact.ninja\\/facts?page=7\",\"label\":\"7\",\"active\":false},{\"url\":\"https:\\/\\/catfact.ninja\\/facts?page=8\",\"label\":\"8\",\"active\":false},{\"url\":\"https:\\/\\/catfact.ninja\\/facts?page=9\",\"label\":\"9\",\"active\":false},{\"url\":\"https:\\/\\/catfact.ninja\\/facts?page=10\",\"label\":\"10\",\"active\":false},{\"url\":null,\"label\":\"...\",\"active\":false},{\"url\":\"https:\\/\\/catfact.ninja\\/facts?page=33\",\"label\":\"33\",\"active\":false},{\"url\":\"https:\\/\\/catfact.ninja\\/facts?page=34\",\"label\":\"34\",\"active\":false},{\"url\":\"https:\\/\\/catfact.ninja\\/facts?page=2\",\"label\":\"Next\",\"active\":false}],\"next_page_url\":\"https:\\/\\/catfact.ninja\\/facts?page=2\",\"path\":\"https:\\/\\/catfact.ninja\\/facts\",\"per_page\":10,\"prev_page_url\":null,\"to\":10,\"total\":332} </b> </pre> </p>",
  "status" : "passed",
  "flaky" : false,
  "newFailed" : false,
  "beforeStages" : [ ],
  "testStage" : {
    "descriptionHtml" : "<p style=\"color:MediumPurple;\"> <b>  </b> </p> <h4 style=\"color:DodgerBlue;\"><b><i>Request:</i></b></h4> <p style=\"color:DodgerBlue\"> <b> GET - https://catfact.ninja/facts </b> </p>  <table> <tr> <th style=\"border: 1px solid #dddddd;text-align: left;padding: 8px;color:Orange;\">  </th> <td style=\"border: 1px solid #dddddd;text-align: left;padding: 8px;\"> <pre style=\"color:Orange\"> <b>  </b> </pre> </td> </tr>  </table> </p> <h4 style=\"color:DodgerBlue;\"> <b> <i> Response: </i> </b> </h4> <p style=\"color:DodgerBlue\"> <b> 200 - OK </b> </p> <p > <pre style=\"color:Orange;\"> <b> {\"current_page\":1,\"data\":[{\"fact\":\"A sexually-active feral tom-cat \\\\owns\\\\\\\" an area of about three square miles and \\\\\\\"\\\"sprays\\\\\\\"\\\" to mark his territory with strong smelling urine.\\\"\\\"\\\"\",\"length\":145},{\"fact\":\"Approximately 40,000 people are bitten by cats in the U.S. annually.\",\"length\":68},{\"fact\":\"Cats often overract to unexpected stimuli because of their extremely sensitive nervous system.\",\"length\":94},{\"fact\":\"The richest cat is Blackie who was left \\u00a315 million by his owner, Ben Rea.\",\"length\":74},{\"fact\":\"Cats lose almost as much fluid in the saliva while grooming themselves as they do through urination.\",\"length\":100},{\"fact\":\"Cats should not be fed tuna exclusively, as it lacks taurine, an essential nutrient required for good feline health.  Make sure you have the proper Pet supplies to keep your cat happy and healthy.\",\"length\":196},{\"fact\":\"The first cat in space was a French cat named Felicette (a.k.a. \\u201cAstrocat\\u201d) In 1963, France blasted the cat into outer space. Electrodes implanted in her brains sent neurological signals back to Earth. She survived the trip.\",\"length\":224},{\"fact\":\"A cats field of vision is about 185 degrees.\",\"length\":44},{\"fact\":\"The Maine Coone is the only native American long haired breed.\",\"length\":62},{\"fact\":\"A cat's appetite is the barometer of its health. Any cat that does not eat or drink for more than two days should be taken to a vet.\",\"length\":132}],\"first_page_url\":\"https:\\/\\/catfact.ninja\\/facts?page=1\",\"from\":1,\"last_page\":34,\"last_page_url\":\"https:\\/\\/catfact.ninja\\/facts?page=34\",\"links\":[{\"url\":null,\"label\":\"Previous\",\"active\":false},{\"url\":\"https:\\/\\/catfact.ninja\\/facts?page=1\",\"label\":\"1\",\"active\":true},{\"url\":\"https:\\/\\/catfact.ninja\\/facts?page=2\",\"label\":\"2\",\"active\":false},{\"url\":\"https:\\/\\/catfact.ninja\\/facts?page=3\",\"label\":\"3\",\"active\":false},{\"url\":\"https:\\/\\/catfact.ninja\\/facts?page=4\",\"label\":\"4\",\"active\":false},{\"url\":\"https:\\/\\/catfact.ninja\\/facts?page=5\",\"label\":\"5\",\"active\":false},{\"url\":\"https:\\/\\/catfact.ninja\\/facts?page=6\",\"label\":\"6\",\"active\":false},{\"url\":\"https:\\/\\/catfact.ninja\\/facts?page=7\",\"label\":\"7\",\"active\":false},{\"url\":\"https:\\/\\/catfact.ninja\\/facts?page=8\",\"label\":\"8\",\"active\":false},{\"url\":\"https:\\/\\/catfact.ninja\\/facts?page=9\",\"label\":\"9\",\"active\":false},{\"url\":\"https:\\/\\/catfact.ninja\\/facts?page=10\",\"label\":\"10\",\"active\":false},{\"url\":null,\"label\":\"...\",\"active\":false},{\"url\":\"https:\\/\\/catfact.ninja\\/facts?page=33\",\"label\":\"33\",\"active\":false},{\"url\":\"https:\\/\\/catfact.ninja\\/facts?page=34\",\"label\":\"34\",\"active\":false},{\"url\":\"https:\\/\\/catfact.ninja\\/facts?page=2\",\"label\":\"Next\",\"active\":false}],\"next_page_url\":\"https:\\/\\/catfact.ninja\\/facts?page=2\",\"path\":\"https:\\/\\/catfact.ninja\\/facts\",\"per_page\":10,\"prev_page_url\":null,\"to\":10,\"total\":332} </b> </pre> </p>",
    "status" : "passed",
    "steps" : [ {
      "name" : "Status code is 200",
      "time" : {
        "start" : 1643380616095,
        "stop" : 1643380616095,
        "duration" : 0
      },
      "status" : "passed",
      "steps" : [ ],
      "attachments" : [ ],
      "parameters" : [ ],
      "stepsCount" : 0,
      "attachmentsCount" : 0,
      "shouldDisplayMessage" : false,
      "hasContent" : false
    } ],
    "attachments" : [ {
      "uid" : "cd24f4fb3f680700",
      "name" : "test_scrpt",
      "source" : "cd24f4fb3f680700.txt",
      "type" : "text/plain",
      "size" : 67
    }, {
      "uid" : "613b0f9cf4f487e7",
      "name" : "console_logs",
      "source" : "613b0f9cf4f487e7.txt",
      "type" : "text/plain",
      "size" : 82
    } ],
    "parameters" : [ ],
    "stepsCount" : 1,
    "attachmentsCount" : 2,
    "shouldDisplayMessage" : false,
    "hasContent" : true
  },
  "afterStages" : [ ],
  "labels" : [ {
    "name" : "parentSuite",
    "value" : "Facts"
  }, {
    "name" : "feature",
    "value" : "Facts"
  }, {
    "name" : "story",
    "value" : "facts"
  }, {
    "name" : "resultFormat",
    "value" : "allure2"
  } ],
  "parameters" : [ ],
  "links" : [ ],
  "hidden" : false,
  "retry" : false,
  "extra" : {
    "severity" : "normal",
    "retries" : [ ],
    "categories" : [ ],
    "tags" : [ ]
  },
  "source" : "c1d456cfadf282c6.json",
  "parameterValues" : [ ]
}