{
  "uid" : "2d3c735e0b368d62",
  "name" : "GetFacts",
  "historyId" : "87ac645d6444b0548452f7105ef53321",
  "time" : {
    "start" : 1644263837265,
    "stop" : 1644263837411,
    "duration" : 146
  },
  "descriptionHtml" : "<p style=\"color:MediumPurple;\"> <b>  </b> </p> <h4 style=\"color:DodgerBlue;\"><b><i>Request:</i></b></h4> <p style=\"color:DodgerBlue\"> <b> GET - https://catfact.ninja/facts </b> </p>  <table> <tr> <th style=\"border: 1px solid #dddddd;text-align: left;padding: 8px;color:Orange;\">  </th> <td style=\"border: 1px solid #dddddd;text-align: left;padding: 8px;\"> <pre style=\"color:Orange\"> <b>  </b> </pre> </td> </tr>  </table> </p> <h4 style=\"color:DodgerBlue;\"> <b> <i> Response: </i> </b> </h4> <p style=\"color:DodgerBlue\"> <b> 200 - OK </b> </p> <p > <pre style=\"color:Orange;\"> <b> {\"current_page\":1,\"data\":[{\"fact\":\"A cat\\u2019s heart beats nearly twice as fast as a human heart, at 110 to 140 beats a minute.\",\"length\":88},{\"fact\":\"Cats with long, lean bodies are more likely to be outgoing, and more protective and vocal than those with a stocky build.\",\"length\":121},{\"fact\":\"There are up to 60 million feral cats in the United States alone.\",\"length\":65},{\"fact\":\"In just 7 years, one un-spayed female cat and one un-neutered male cat and their offspring can result in 420,000 kittens.\",\"length\":121},{\"fact\":\"The claws on the cat\\u2019s back paws aren\\u2019t as sharp as the claws on the front paws because the claws in the back don\\u2019t retract and, consequently, become worn.\",\"length\":155},{\"fact\":\"Perhaps the most famous comic cat is the Cheshire Cat in Lewis Carroll\\u2019s Alice in Wonderland. With the ability to disappear, this mysterious character embodies the magic and sorcery historically associated with cats.\",\"length\":216},{\"fact\":\"Cats spend nearly 1\\/3 of their waking hours cleaning themselves.\",\"length\":64},{\"fact\":\"When your cats rubs up against you, she is actually marking you as 'hers' with her scent. If your cat pushes his face against your head, it is a sign of acceptance and affection.\",\"length\":137},{\"fact\":\"Kittens remain with their mother till the age of 9 weeks.\",\"length\":57},{\"fact\":\"Cats are now Britain's favourite pet: there are 7.7 million cats as opposed to 6.6 million dogs.\",\"length\":96}],\"first_page_url\":\"https:\\/\\/catfact.ninja\\/facts?page=1\",\"from\":1,\"last_page\":34,\"last_page_url\":\"https:\\/\\/catfact.ninja\\/facts?page=34\",\"links\":[{\"url\":null,\"label\":\"Previous\",\"active\":false},{\"url\":\"https:\\/\\/catfact.ninja\\/facts?page=1\",\"label\":\"1\",\"active\":true},{\"url\":\"https:\\/\\/catfact.ninja\\/facts?page=2\",\"label\":\"2\",\"active\":false},{\"url\":\"https:\\/\\/catfact.ninja\\/facts?page=3\",\"label\":\"3\",\"active\":false},{\"url\":\"https:\\/\\/catfact.ninja\\/facts?page=4\",\"label\":\"4\",\"active\":false},{\"url\":\"https:\\/\\/catfact.ninja\\/facts?page=5\",\"label\":\"5\",\"active\":false},{\"url\":\"https:\\/\\/catfact.ninja\\/facts?page=6\",\"label\":\"6\",\"active\":false},{\"url\":\"https:\\/\\/catfact.ninja\\/facts?page=7\",\"label\":\"7\",\"active\":false},{\"url\":\"https:\\/\\/catfact.ninja\\/facts?page=8\",\"label\":\"8\",\"active\":false},{\"url\":\"https:\\/\\/catfact.ninja\\/facts?page=9\",\"label\":\"9\",\"active\":false},{\"url\":\"https:\\/\\/catfact.ninja\\/facts?page=10\",\"label\":\"10\",\"active\":false},{\"url\":null,\"label\":\"...\",\"active\":false},{\"url\":\"https:\\/\\/catfact.ninja\\/facts?page=33\",\"label\":\"33\",\"active\":false},{\"url\":\"https:\\/\\/catfact.ninja\\/facts?page=34\",\"label\":\"34\",\"active\":false},{\"url\":\"https:\\/\\/catfact.ninja\\/facts?page=2\",\"label\":\"Next\",\"active\":false}],\"next_page_url\":\"https:\\/\\/catfact.ninja\\/facts?page=2\",\"path\":\"https:\\/\\/catfact.ninja\\/facts\",\"per_page\":10,\"prev_page_url\":null,\"to\":10,\"total\":332} </b> </pre> </p>",
  "status" : "passed",
  "flaky" : false,
  "newFailed" : false,
  "beforeStages" : [ ],
  "testStage" : {
    "descriptionHtml" : "<p style=\"color:MediumPurple;\"> <b>  </b> </p> <h4 style=\"color:DodgerBlue;\"><b><i>Request:</i></b></h4> <p style=\"color:DodgerBlue\"> <b> GET - https://catfact.ninja/facts </b> </p>  <table> <tr> <th style=\"border: 1px solid #dddddd;text-align: left;padding: 8px;color:Orange;\">  </th> <td style=\"border: 1px solid #dddddd;text-align: left;padding: 8px;\"> <pre style=\"color:Orange\"> <b>  </b> </pre> </td> </tr>  </table> </p> <h4 style=\"color:DodgerBlue;\"> <b> <i> Response: </i> </b> </h4> <p style=\"color:DodgerBlue\"> <b> 200 - OK </b> </p> <p > <pre style=\"color:Orange;\"> <b> {\"current_page\":1,\"data\":[{\"fact\":\"A cat\\u2019s heart beats nearly twice as fast as a human heart, at 110 to 140 beats a minute.\",\"length\":88},{\"fact\":\"Cats with long, lean bodies are more likely to be outgoing, and more protective and vocal than those with a stocky build.\",\"length\":121},{\"fact\":\"There are up to 60 million feral cats in the United States alone.\",\"length\":65},{\"fact\":\"In just 7 years, one un-spayed female cat and one un-neutered male cat and their offspring can result in 420,000 kittens.\",\"length\":121},{\"fact\":\"The claws on the cat\\u2019s back paws aren\\u2019t as sharp as the claws on the front paws because the claws in the back don\\u2019t retract and, consequently, become worn.\",\"length\":155},{\"fact\":\"Perhaps the most famous comic cat is the Cheshire Cat in Lewis Carroll\\u2019s Alice in Wonderland. With the ability to disappear, this mysterious character embodies the magic and sorcery historically associated with cats.\",\"length\":216},{\"fact\":\"Cats spend nearly 1\\/3 of their waking hours cleaning themselves.\",\"length\":64},{\"fact\":\"When your cats rubs up against you, she is actually marking you as 'hers' with her scent. If your cat pushes his face against your head, it is a sign of acceptance and affection.\",\"length\":137},{\"fact\":\"Kittens remain with their mother till the age of 9 weeks.\",\"length\":57},{\"fact\":\"Cats are now Britain's favourite pet: there are 7.7 million cats as opposed to 6.6 million dogs.\",\"length\":96}],\"first_page_url\":\"https:\\/\\/catfact.ninja\\/facts?page=1\",\"from\":1,\"last_page\":34,\"last_page_url\":\"https:\\/\\/catfact.ninja\\/facts?page=34\",\"links\":[{\"url\":null,\"label\":\"Previous\",\"active\":false},{\"url\":\"https:\\/\\/catfact.ninja\\/facts?page=1\",\"label\":\"1\",\"active\":true},{\"url\":\"https:\\/\\/catfact.ninja\\/facts?page=2\",\"label\":\"2\",\"active\":false},{\"url\":\"https:\\/\\/catfact.ninja\\/facts?page=3\",\"label\":\"3\",\"active\":false},{\"url\":\"https:\\/\\/catfact.ninja\\/facts?page=4\",\"label\":\"4\",\"active\":false},{\"url\":\"https:\\/\\/catfact.ninja\\/facts?page=5\",\"label\":\"5\",\"active\":false},{\"url\":\"https:\\/\\/catfact.ninja\\/facts?page=6\",\"label\":\"6\",\"active\":false},{\"url\":\"https:\\/\\/catfact.ninja\\/facts?page=7\",\"label\":\"7\",\"active\":false},{\"url\":\"https:\\/\\/catfact.ninja\\/facts?page=8\",\"label\":\"8\",\"active\":false},{\"url\":\"https:\\/\\/catfact.ninja\\/facts?page=9\",\"label\":\"9\",\"active\":false},{\"url\":\"https:\\/\\/catfact.ninja\\/facts?page=10\",\"label\":\"10\",\"active\":false},{\"url\":null,\"label\":\"...\",\"active\":false},{\"url\":\"https:\\/\\/catfact.ninja\\/facts?page=33\",\"label\":\"33\",\"active\":false},{\"url\":\"https:\\/\\/catfact.ninja\\/facts?page=34\",\"label\":\"34\",\"active\":false},{\"url\":\"https:\\/\\/catfact.ninja\\/facts?page=2\",\"label\":\"Next\",\"active\":false}],\"next_page_url\":\"https:\\/\\/catfact.ninja\\/facts?page=2\",\"path\":\"https:\\/\\/catfact.ninja\\/facts\",\"per_page\":10,\"prev_page_url\":null,\"to\":10,\"total\":332} </b> </pre> </p>",
    "status" : "passed",
    "steps" : [ {
      "name" : "Status code is 200",
      "time" : {
        "start" : 1644263837408,
        "stop" : 1644263837408,
        "duration" : 0
      },
      "status" : "passed",
      "steps" : [ ],
      "attachments" : [ ],
      "parameters" : [ ],
      "stepsCount" : 0,
      "attachmentsCount" : 0,
      "shouldDisplayMessage" : false,
      "hasContent" : false
    } ],
    "attachments" : [ {
      "uid" : "c783c74c246dc60d",
      "name" : "test_scrpt",
      "source" : "c783c74c246dc60d.txt",
      "type" : "text/plain",
      "size" : 67
    }, {
      "uid" : "3a817cbe488b9165",
      "name" : "console_logs",
      "source" : "3a817cbe488b9165.txt",
      "type" : "text/plain",
      "size" : 82
    } ],
    "parameters" : [ ],
    "stepsCount" : 1,
    "attachmentsCount" : 2,
    "shouldDisplayMessage" : false,
    "hasContent" : true
  },
  "afterStages" : [ ],
  "labels" : [ {
    "name" : "parentSuite",
    "value" : "Facts"
  }, {
    "name" : "feature",
    "value" : "Facts"
  }, {
    "name" : "story",
    "value" : "facts"
  }, {
    "name" : "resultFormat",
    "value" : "allure2"
  } ],
  "parameters" : [ ],
  "links" : [ ],
  "hidden" : false,
  "retry" : false,
  "extra" : {
    "severity" : "normal",
    "retries" : [ ],
    "categories" : [ ],
    "tags" : [ ]
  },
  "source" : "2d3c735e0b368d62.json",
  "parameterValues" : [ ]
}