{
  "uid" : "7f4df9bd8a11babd",
  "name" : "GetFacts",
  "historyId" : "2f4cb8e650721008872c247737aa08ef",
  "time" : {
    "start" : 1643376127242,
    "stop" : 1643376127310,
    "duration" : 68
  },
  "descriptionHtml" : "<p style=\"color:MediumPurple;\"> <b>  </b> </p> <h4 style=\"color:DodgerBlue;\"><b><i>Request:</i></b></h4> <p style=\"color:DodgerBlue\"> <b> GET - https://catfact.ninja/facts </b> </p>  <table> <tr> <th style=\"border: 1px solid #dddddd;text-align: left;padding: 8px;color:Orange;\">  </th> <td style=\"border: 1px solid #dddddd;text-align: left;padding: 8px;\"> <pre style=\"color:Orange\"> <b>  </b> </pre> </td> </tr>  </table> </p> <h4 style=\"color:DodgerBlue;\"> <b> <i> Response: </i> </b> </h4> <p style=\"color:DodgerBlue\"> <b> 200 - OK </b> </p> <p > <pre style=\"color:Orange;\"> <b> {\"current_page\":1,\"data\":[{\"fact\":\"Two members of the cat family are distinct from all others: the clouded leopard and the cheetah. The clouded leopard does not roar like other big cats, nor does it groom or rest like small cats. The cheetah is unique because it is a running cat; all others are leaping cats. They are leaping cats because they slowly stalk their prey and then leap on it.\",\"length\":354},{\"fact\":\"Since cats are so good at hiding illness, even a single instance of a symptom should be taken very seriously.\",\"length\":109},{\"fact\":\"The first cat in space was a French cat named Felicette (a.k.a. \\u201cAstrocat\\u201d) In 1963, France blasted the cat into outer space. Electrodes implanted in her brains sent neurological signals back to Earth. She survived the trip.\",\"length\":224},{\"fact\":\"The tiniest cat on record is Mr. Pebbles, a 2-year-old cat that weighed 3 lbs (1.3 k) and was 6.1 inches (15.5 cm) high.\",\"length\":120},{\"fact\":\"Jaguars are the only big cats that don't roar.\",\"length\":46},{\"fact\":\"A cat named Dusty, aged 1 7, living in Bonham, Texas, USA, gave birth to her 420th kitten on June 23, 1952.\",\"length\":107},{\"fact\":\"Most cats give birth to a litter of between one and nine kittens. The largest known litter ever produced was 19 kittens, of which 15 survived.\",\"length\":142},{\"fact\":\"A kitten will typically weigh about 3 ounces at birth.  The typical male housecat will weigh between  7 and 9 pounds, slightly less for female housecats.\",\"length\":153},{\"fact\":\"Cats have 32 muscles that control the outer ear (humans have only 6). A cat can independently rotate its ears 180 degrees.\",\"length\":122},{\"fact\":\"A cat sees about 6 times better than a human at night, and needs 1\\/6 the amount of of light that a human does - it has a layer of extra reflecting cells which absorb light.\",\"length\":172}],\"first_page_url\":\"https:\\/\\/catfact.ninja\\/facts?page=1\",\"from\":1,\"last_page\":34,\"last_page_url\":\"https:\\/\\/catfact.ninja\\/facts?page=34\",\"links\":[{\"url\":null,\"label\":\"Previous\",\"active\":false},{\"url\":\"https:\\/\\/catfact.ninja\\/facts?page=1\",\"label\":\"1\",\"active\":true},{\"url\":\"https:\\/\\/catfact.ninja\\/facts?page=2\",\"label\":\"2\",\"active\":false},{\"url\":\"https:\\/\\/catfact.ninja\\/facts?page=3\",\"label\":\"3\",\"active\":false},{\"url\":\"https:\\/\\/catfact.ninja\\/facts?page=4\",\"label\":\"4\",\"active\":false},{\"url\":\"https:\\/\\/catfact.ninja\\/facts?page=5\",\"label\":\"5\",\"active\":false},{\"url\":\"https:\\/\\/catfact.ninja\\/facts?page=6\",\"label\":\"6\",\"active\":false},{\"url\":\"https:\\/\\/catfact.ninja\\/facts?page=7\",\"label\":\"7\",\"active\":false},{\"url\":\"https:\\/\\/catfact.ninja\\/facts?page=8\",\"label\":\"8\",\"active\":false},{\"url\":\"https:\\/\\/catfact.ninja\\/facts?page=9\",\"label\":\"9\",\"active\":false},{\"url\":\"https:\\/\\/catfact.ninja\\/facts?page=10\",\"label\":\"10\",\"active\":false},{\"url\":null,\"label\":\"...\",\"active\":false},{\"url\":\"https:\\/\\/catfact.ninja\\/facts?page=33\",\"label\":\"33\",\"active\":false},{\"url\":\"https:\\/\\/catfact.ninja\\/facts?page=34\",\"label\":\"34\",\"active\":false},{\"url\":\"https:\\/\\/catfact.ninja\\/facts?page=2\",\"label\":\"Next\",\"active\":false}],\"next_page_url\":\"https:\\/\\/catfact.ninja\\/facts?page=2\",\"path\":\"https:\\/\\/catfact.ninja\\/facts\",\"per_page\":10,\"prev_page_url\":null,\"to\":10,\"total\":332} </b> </pre> </p>",
  "status" : "passed",
  "flaky" : false,
  "newFailed" : false,
  "beforeStages" : [ ],
  "testStage" : {
    "descriptionHtml" : "<p style=\"color:MediumPurple;\"> <b>  </b> </p> <h4 style=\"color:DodgerBlue;\"><b><i>Request:</i></b></h4> <p style=\"color:DodgerBlue\"> <b> GET - https://catfact.ninja/facts </b> </p>  <table> <tr> <th style=\"border: 1px solid #dddddd;text-align: left;padding: 8px;color:Orange;\">  </th> <td style=\"border: 1px solid #dddddd;text-align: left;padding: 8px;\"> <pre style=\"color:Orange\"> <b>  </b> </pre> </td> </tr>  </table> </p> <h4 style=\"color:DodgerBlue;\"> <b> <i> Response: </i> </b> </h4> <p style=\"color:DodgerBlue\"> <b> 200 - OK </b> </p> <p > <pre style=\"color:Orange;\"> <b> {\"current_page\":1,\"data\":[{\"fact\":\"Two members of the cat family are distinct from all others: the clouded leopard and the cheetah. The clouded leopard does not roar like other big cats, nor does it groom or rest like small cats. The cheetah is unique because it is a running cat; all others are leaping cats. They are leaping cats because they slowly stalk their prey and then leap on it.\",\"length\":354},{\"fact\":\"Since cats are so good at hiding illness, even a single instance of a symptom should be taken very seriously.\",\"length\":109},{\"fact\":\"The first cat in space was a French cat named Felicette (a.k.a. \\u201cAstrocat\\u201d) In 1963, France blasted the cat into outer space. Electrodes implanted in her brains sent neurological signals back to Earth. She survived the trip.\",\"length\":224},{\"fact\":\"The tiniest cat on record is Mr. Pebbles, a 2-year-old cat that weighed 3 lbs (1.3 k) and was 6.1 inches (15.5 cm) high.\",\"length\":120},{\"fact\":\"Jaguars are the only big cats that don't roar.\",\"length\":46},{\"fact\":\"A cat named Dusty, aged 1 7, living in Bonham, Texas, USA, gave birth to her 420th kitten on June 23, 1952.\",\"length\":107},{\"fact\":\"Most cats give birth to a litter of between one and nine kittens. The largest known litter ever produced was 19 kittens, of which 15 survived.\",\"length\":142},{\"fact\":\"A kitten will typically weigh about 3 ounces at birth.  The typical male housecat will weigh between  7 and 9 pounds, slightly less for female housecats.\",\"length\":153},{\"fact\":\"Cats have 32 muscles that control the outer ear (humans have only 6). A cat can independently rotate its ears 180 degrees.\",\"length\":122},{\"fact\":\"A cat sees about 6 times better than a human at night, and needs 1\\/6 the amount of of light that a human does - it has a layer of extra reflecting cells which absorb light.\",\"length\":172}],\"first_page_url\":\"https:\\/\\/catfact.ninja\\/facts?page=1\",\"from\":1,\"last_page\":34,\"last_page_url\":\"https:\\/\\/catfact.ninja\\/facts?page=34\",\"links\":[{\"url\":null,\"label\":\"Previous\",\"active\":false},{\"url\":\"https:\\/\\/catfact.ninja\\/facts?page=1\",\"label\":\"1\",\"active\":true},{\"url\":\"https:\\/\\/catfact.ninja\\/facts?page=2\",\"label\":\"2\",\"active\":false},{\"url\":\"https:\\/\\/catfact.ninja\\/facts?page=3\",\"label\":\"3\",\"active\":false},{\"url\":\"https:\\/\\/catfact.ninja\\/facts?page=4\",\"label\":\"4\",\"active\":false},{\"url\":\"https:\\/\\/catfact.ninja\\/facts?page=5\",\"label\":\"5\",\"active\":false},{\"url\":\"https:\\/\\/catfact.ninja\\/facts?page=6\",\"label\":\"6\",\"active\":false},{\"url\":\"https:\\/\\/catfact.ninja\\/facts?page=7\",\"label\":\"7\",\"active\":false},{\"url\":\"https:\\/\\/catfact.ninja\\/facts?page=8\",\"label\":\"8\",\"active\":false},{\"url\":\"https:\\/\\/catfact.ninja\\/facts?page=9\",\"label\":\"9\",\"active\":false},{\"url\":\"https:\\/\\/catfact.ninja\\/facts?page=10\",\"label\":\"10\",\"active\":false},{\"url\":null,\"label\":\"...\",\"active\":false},{\"url\":\"https:\\/\\/catfact.ninja\\/facts?page=33\",\"label\":\"33\",\"active\":false},{\"url\":\"https:\\/\\/catfact.ninja\\/facts?page=34\",\"label\":\"34\",\"active\":false},{\"url\":\"https:\\/\\/catfact.ninja\\/facts?page=2\",\"label\":\"Next\",\"active\":false}],\"next_page_url\":\"https:\\/\\/catfact.ninja\\/facts?page=2\",\"path\":\"https:\\/\\/catfact.ninja\\/facts\",\"per_page\":10,\"prev_page_url\":null,\"to\":10,\"total\":332} </b> </pre> </p>",
    "status" : "passed",
    "steps" : [ {
      "name" : "Status code is 200",
      "time" : {
        "start" : 1643376127307,
        "stop" : 1643376127307,
        "duration" : 0
      },
      "status" : "passed",
      "steps" : [ ],
      "attachments" : [ ],
      "parameters" : [ ],
      "stepsCount" : 0,
      "attachmentsCount" : 0,
      "shouldDisplayMessage" : false,
      "hasContent" : false
    } ],
    "attachments" : [ {
      "uid" : "f45827dad96d61fb",
      "name" : "test_scrpt",
      "source" : "f45827dad96d61fb.txt",
      "type" : "text/plain",
      "size" : 67
    }, {
      "uid" : "fe1e7f849037c1a5",
      "name" : "console_logs",
      "source" : "fe1e7f849037c1a5.txt",
      "type" : "text/plain",
      "size" : 82
    } ],
    "parameters" : [ ],
    "stepsCount" : 1,
    "attachmentsCount" : 2,
    "shouldDisplayMessage" : false,
    "hasContent" : true
  },
  "afterStages" : [ ],
  "labels" : [ {
    "name" : "parentSuite",
    "value" : "Facts"
  }, {
    "name" : "feature",
    "value" : "Facts"
  }, {
    "name" : "story",
    "value" : "facts"
  }, {
    "name" : "resultFormat",
    "value" : "allure2"
  } ],
  "parameters" : [ ],
  "links" : [ ],
  "hidden" : false,
  "retry" : false,
  "extra" : {
    "severity" : "normal",
    "retries" : [ ],
    "categories" : [ ],
    "tags" : [ ]
  },
  "source" : "7f4df9bd8a11babd.json",
  "parameterValues" : [ ]
}