{
  "uid" : "f06a19e314f93b8a",
  "name" : "GetBreedsFail",
  "historyId" : "2f156a2b2fa97511e9c0e0b9489e74fe",
  "time" : {
    "start" : 1643376126302,
    "stop" : 1643376126377,
    "duration" : 75
  },
  "descriptionHtml" : "<p style=\"color:MediumPurple;\"> <b>  </b> </p> <h4 style=\"color:DodgerBlue;\"><b><i>Request:</i></b></h4> <p style=\"color:DodgerBlue\"> <b> GET - https://catfact.ninja/breeds </b> </p>  <table> <tr> <th style=\"border: 1px solid #dddddd;text-align: left;padding: 8px;color:Orange;\">  </th> <td style=\"border: 1px solid #dddddd;text-align: left;padding: 8px;\"> <pre style=\"color:Orange\"> <b>  </b> </pre> </td> </tr>  </table> </p> <h4 style=\"color:DodgerBlue;\"> <b> <i> Response: </i> </b> </h4> <p style=\"color:DodgerBlue\"> <b> 200 - OK </b> </p> <p > <pre style=\"color:Orange;\"> <b> {\"current_page\":1,\"data\":[{\"breed\":\"Abyssinian\",\"country\":\"Ethiopia\",\"origin\":\"Natural\\/Standard\",\"coat\":\"Short\",\"pattern\":\"Ticked\"},{\"breed\":\"Aegean\",\"country\":\"Greece\",\"origin\":\"Natural\\/Standard\",\"coat\":\"Semi-long\",\"pattern\":\"Bi- or tri-colored\"},{\"breed\":\"American Curl\",\"country\":\"United States\",\"origin\":\"Mutation\",\"coat\":\"Short\\/Long\",\"pattern\":\"All\"},{\"breed\":\"American Bobtail\",\"country\":\"United States\",\"origin\":\"Mutation\",\"coat\":\"Short\\/Long\",\"pattern\":\"All\"},{\"breed\":\"American Shorthair\",\"country\":\"United States\",\"origin\":\"Natural\",\"coat\":\"Short\",\"pattern\":\"All but colorpoint\"},{\"breed\":\"American Wirehair\",\"country\":\"United States\",\"origin\":\"Mutation\",\"coat\":\"Rex\",\"pattern\":\"All but colorpoint\"},{\"breed\":\"Arabian Mau\",\"country\":\"Arabian Peninsula\",\"origin\":\"Natural\",\"coat\":\"Short\",\"pattern\":\"\"},{\"breed\":\"Australian Mist\",\"country\":\"Australia\",\"origin\":\"Crossbreed\",\"coat\":\"Short\",\"pattern\":\"Spotted and Classic tabby\"},{\"breed\":\"Asian\",\"country\":\"developed in the United Kingdom (founding stock from Asia)\",\"origin\":\"\",\"coat\":\"Short\",\"pattern\":\"Evenly solid\"},{\"breed\":\"Asian Semi-longhair\",\"country\":\"United Kingdom\",\"origin\":\"Crossbreed\",\"coat\":\"Semi-long\",\"pattern\":\"Solid\"},{\"breed\":\"Balinese\",\"country\":\"developed in the United States (founding stock from Thailand)\",\"origin\":\"Crossbreed\",\"coat\":\"Long\",\"pattern\":\"Colorpoint\"},{\"breed\":\"Bambino\",\"country\":\"United States\",\"origin\":\"Crossbreed\",\"coat\":\"Hairless\\/Furry down\",\"pattern\":\"\"},{\"breed\":\"Bengal\",\"country\":\"developed in the United States (founding stock from Asia)\",\"origin\":\"Hybrid\",\"coat\":\"Short\",\"pattern\":\"Spotted\\/Marbled\"},{\"breed\":\"Birman\",\"country\":\"developed in France (founding stock from Burma)\",\"origin\":\"Natural\",\"coat\":\"Semi Long\",\"pattern\":\"Colorpoint\"},{\"breed\":\"Bombay\",\"country\":\"developed in the United States (founding stock from Asia)\",\"origin\":\"Crossbred\",\"coat\":\"Short\",\"pattern\":\"Solid\"},{\"breed\":\"Brazilian Shorthair\",\"country\":\"Brazil\",\"origin\":\"Natural\",\"coat\":\"Short\",\"pattern\":\"All\"},{\"breed\":\"British Semi-longhair\",\"country\":\"United Kingdom\",\"origin\":\"\",\"coat\":\"Medium\",\"pattern\":\"All\"},{\"breed\":\"British Shorthair\",\"country\":\"United Kingdom\",\"origin\":\"Natural\",\"coat\":\"Short\",\"pattern\":\"All\"},{\"breed\":\"British Longhair\",\"country\":\"United Kingdom\",\"origin\":\"\",\"coat\":\"Long\",\"pattern\":\"\"},{\"breed\":\"Burmese\",\"country\":\"Burma and Thailand\",\"origin\":\"Natural\",\"coat\":\"Short\",\"pattern\":\"Solid\"},{\"breed\":\"Burmilla\",\"country\":\"United Kingdom\",\"origin\":\"Crossbreed\",\"coat\":\"Short\\/Long\",\"pattern\":\"\"},{\"breed\":\"California Spangled\",\"country\":\"United States\",\"origin\":\"Crossbreed\",\"coat\":\"Short\",\"pattern\":\"Spotted\"},{\"breed\":\"Chantilly-Tiffany\",\"country\":\"United States\",\"origin\":\"\",\"coat\":\"\",\"pattern\":\"\"},{\"breed\":\"Chartreux\",\"country\":\"France\",\"origin\":\"Natural\",\"coat\":\"Short\",\"pattern\":\"Solid\"},{\"breed\":\"Chausie\",\"country\":\"France\",\"origin\":\"Hybrid\",\"coat\":\"Short\",\"pattern\":\"Ticked\"}],\"first_page_url\":\"https:\\/\\/catfact.ninja\\/breeds?page=1\",\"from\":1,\"last_page\":4,\"last_page_url\":\"https:\\/\\/catfact.ninja\\/breeds?page=4\",\"links\":[{\"url\":null,\"label\":\"Previous\",\"active\":false},{\"url\":\"https:\\/\\/catfact.ninja\\/breeds?page=1\",\"label\":\"1\",\"active\":true},{\"url\":\"https:\\/\\/catfact.ninja\\/breeds?page=2\",\"label\":\"2\",\"active\":false},{\"url\":\"https:\\/\\/catfact.ninja\\/breeds?page=3\",\"label\":\"3\",\"active\":false},{\"url\":\"https:\\/\\/catfact.ninja\\/breeds?page=4\",\"label\":\"4\",\"active\":false},{\"url\":\"https:\\/\\/catfact.ninja\\/breeds?page=2\",\"label\":\"Next\",\"active\":false}],\"next_page_url\":\"https:\\/\\/catfact.ninja\\/breeds?page=2\",\"path\":\"https:\\/\\/catfact.ninja\\/breeds\",\"per_page\":25,\"prev_page_url\":null,\"to\":25,\"total\":98} </b> </pre> </p>",
  "status" : "passed",
  "flaky" : false,
  "newFailed" : false,
  "beforeStages" : [ ],
  "testStage" : {
    "descriptionHtml" : "<p style=\"color:MediumPurple;\"> <b>  </b> </p> <h4 style=\"color:DodgerBlue;\"><b><i>Request:</i></b></h4> <p style=\"color:DodgerBlue\"> <b> GET - https://catfact.ninja/breeds </b> </p>  <table> <tr> <th style=\"border: 1px solid #dddddd;text-align: left;padding: 8px;color:Orange;\">  </th> <td style=\"border: 1px solid #dddddd;text-align: left;padding: 8px;\"> <pre style=\"color:Orange\"> <b>  </b> </pre> </td> </tr>  </table> </p> <h4 style=\"color:DodgerBlue;\"> <b> <i> Response: </i> </b> </h4> <p style=\"color:DodgerBlue\"> <b> 200 - OK </b> </p> <p > <pre style=\"color:Orange;\"> <b> {\"current_page\":1,\"data\":[{\"breed\":\"Abyssinian\",\"country\":\"Ethiopia\",\"origin\":\"Natural\\/Standard\",\"coat\":\"Short\",\"pattern\":\"Ticked\"},{\"breed\":\"Aegean\",\"country\":\"Greece\",\"origin\":\"Natural\\/Standard\",\"coat\":\"Semi-long\",\"pattern\":\"Bi- or tri-colored\"},{\"breed\":\"American Curl\",\"country\":\"United States\",\"origin\":\"Mutation\",\"coat\":\"Short\\/Long\",\"pattern\":\"All\"},{\"breed\":\"American Bobtail\",\"country\":\"United States\",\"origin\":\"Mutation\",\"coat\":\"Short\\/Long\",\"pattern\":\"All\"},{\"breed\":\"American Shorthair\",\"country\":\"United States\",\"origin\":\"Natural\",\"coat\":\"Short\",\"pattern\":\"All but colorpoint\"},{\"breed\":\"American Wirehair\",\"country\":\"United States\",\"origin\":\"Mutation\",\"coat\":\"Rex\",\"pattern\":\"All but colorpoint\"},{\"breed\":\"Arabian Mau\",\"country\":\"Arabian Peninsula\",\"origin\":\"Natural\",\"coat\":\"Short\",\"pattern\":\"\"},{\"breed\":\"Australian Mist\",\"country\":\"Australia\",\"origin\":\"Crossbreed\",\"coat\":\"Short\",\"pattern\":\"Spotted and Classic tabby\"},{\"breed\":\"Asian\",\"country\":\"developed in the United Kingdom (founding stock from Asia)\",\"origin\":\"\",\"coat\":\"Short\",\"pattern\":\"Evenly solid\"},{\"breed\":\"Asian Semi-longhair\",\"country\":\"United Kingdom\",\"origin\":\"Crossbreed\",\"coat\":\"Semi-long\",\"pattern\":\"Solid\"},{\"breed\":\"Balinese\",\"country\":\"developed in the United States (founding stock from Thailand)\",\"origin\":\"Crossbreed\",\"coat\":\"Long\",\"pattern\":\"Colorpoint\"},{\"breed\":\"Bambino\",\"country\":\"United States\",\"origin\":\"Crossbreed\",\"coat\":\"Hairless\\/Furry down\",\"pattern\":\"\"},{\"breed\":\"Bengal\",\"country\":\"developed in the United States (founding stock from Asia)\",\"origin\":\"Hybrid\",\"coat\":\"Short\",\"pattern\":\"Spotted\\/Marbled\"},{\"breed\":\"Birman\",\"country\":\"developed in France (founding stock from Burma)\",\"origin\":\"Natural\",\"coat\":\"Semi Long\",\"pattern\":\"Colorpoint\"},{\"breed\":\"Bombay\",\"country\":\"developed in the United States (founding stock from Asia)\",\"origin\":\"Crossbred\",\"coat\":\"Short\",\"pattern\":\"Solid\"},{\"breed\":\"Brazilian Shorthair\",\"country\":\"Brazil\",\"origin\":\"Natural\",\"coat\":\"Short\",\"pattern\":\"All\"},{\"breed\":\"British Semi-longhair\",\"country\":\"United Kingdom\",\"origin\":\"\",\"coat\":\"Medium\",\"pattern\":\"All\"},{\"breed\":\"British Shorthair\",\"country\":\"United Kingdom\",\"origin\":\"Natural\",\"coat\":\"Short\",\"pattern\":\"All\"},{\"breed\":\"British Longhair\",\"country\":\"United Kingdom\",\"origin\":\"\",\"coat\":\"Long\",\"pattern\":\"\"},{\"breed\":\"Burmese\",\"country\":\"Burma and Thailand\",\"origin\":\"Natural\",\"coat\":\"Short\",\"pattern\":\"Solid\"},{\"breed\":\"Burmilla\",\"country\":\"United Kingdom\",\"origin\":\"Crossbreed\",\"coat\":\"Short\\/Long\",\"pattern\":\"\"},{\"breed\":\"California Spangled\",\"country\":\"United States\",\"origin\":\"Crossbreed\",\"coat\":\"Short\",\"pattern\":\"Spotted\"},{\"breed\":\"Chantilly-Tiffany\",\"country\":\"United States\",\"origin\":\"\",\"coat\":\"\",\"pattern\":\"\"},{\"breed\":\"Chartreux\",\"country\":\"France\",\"origin\":\"Natural\",\"coat\":\"Short\",\"pattern\":\"Solid\"},{\"breed\":\"Chausie\",\"country\":\"France\",\"origin\":\"Hybrid\",\"coat\":\"Short\",\"pattern\":\"Ticked\"}],\"first_page_url\":\"https:\\/\\/catfact.ninja\\/breeds?page=1\",\"from\":1,\"last_page\":4,\"last_page_url\":\"https:\\/\\/catfact.ninja\\/breeds?page=4\",\"links\":[{\"url\":null,\"label\":\"Previous\",\"active\":false},{\"url\":\"https:\\/\\/catfact.ninja\\/breeds?page=1\",\"label\":\"1\",\"active\":true},{\"url\":\"https:\\/\\/catfact.ninja\\/breeds?page=2\",\"label\":\"2\",\"active\":false},{\"url\":\"https:\\/\\/catfact.ninja\\/breeds?page=3\",\"label\":\"3\",\"active\":false},{\"url\":\"https:\\/\\/catfact.ninja\\/breeds?page=4\",\"label\":\"4\",\"active\":false},{\"url\":\"https:\\/\\/catfact.ninja\\/breeds?page=2\",\"label\":\"Next\",\"active\":false}],\"next_page_url\":\"https:\\/\\/catfact.ninja\\/breeds?page=2\",\"path\":\"https:\\/\\/catfact.ninja\\/breeds\",\"per_page\":25,\"prev_page_url\":null,\"to\":25,\"total\":98} </b> </pre> </p>",
    "status" : "passed",
    "steps" : [ {
      "name" : "Status code is 200",
      "time" : {
        "start" : 1643376126369,
        "stop" : 1643376126369,
        "duration" : 0
      },
      "status" : "passed",
      "steps" : [ ],
      "attachments" : [ ],
      "parameters" : [ ],
      "stepsCount" : 0,
      "attachmentsCount" : 0,
      "shouldDisplayMessage" : false,
      "hasContent" : false
    }, {
      "name" : "Status code is 400",
      "time" : {
        "start" : 1643376126375,
        "stop" : 1643376126375,
        "duration" : 0
      },
      "status" : "passed",
      "steps" : [ ],
      "attachments" : [ ],
      "parameters" : [ ],
      "stepsCount" : 0,
      "attachmentsCount" : 0,
      "shouldDisplayMessage" : false,
      "hasContent" : false
    } ],
    "attachments" : [ {
      "uid" : "f984beb04ac66b43",
      "name" : "test_scrpt",
      "source" : "f984beb04ac66b43.txt",
      "type" : "text/plain",
      "size" : 67
    }, {
      "uid" : "101f65f5e522fc31",
      "name" : "console_logs",
      "source" : "101f65f5e522fc31.txt",
      "type" : "text/plain",
      "size" : 82
    } ],
    "parameters" : [ ],
    "stepsCount" : 2,
    "attachmentsCount" : 2,
    "shouldDisplayMessage" : false,
    "hasContent" : true
  },
  "afterStages" : [ ],
  "labels" : [ {
    "name" : "parentSuite",
    "value" : "Breeds"
  }, {
    "name" : "feature",
    "value" : "Breeds"
  }, {
    "name" : "story",
    "value" : "breeds"
  }, {
    "name" : "resultFormat",
    "value" : "allure2"
  } ],
  "parameters" : [ ],
  "links" : [ ],
  "hidden" : false,
  "retry" : false,
  "extra" : {
    "severity" : "normal",
    "retries" : [ ],
    "categories" : [ ],
    "tags" : [ ]
  },
  "source" : "f06a19e314f93b8a.json",
  "parameterValues" : [ ]
}